%YAML 1.1
%TAG !u! tag:unity3d.com,2011:
--- !u!162 &1
EditorUserSettings:
  m_ObjectHideFlags: 0
  serializedVersion: 4
  m_ConfigSettings:
    RecentlyUsedScenePath-0:
      value: 22424703114646680e0b0227036c6c111b07142f1f2b233e2867083debf42d
      flags: 0
    RecentlyUsedScenePath-1:
      value: 22424703114646643d3c230835006b2f37242b0f181b197f1e2a183de7f37b0ce7f422e0e93d7f0f3a07e1391771353ae11e365ba4451f05181ae4
      flags: 0
    RecentlyUsedScenePath-2:
      value: 22424703114646643d3c230835006b2f37242b0f181b197f1e2a183de7f37b0ce7f422e0e93d7f0f3a07e1391771353ae11e365ba5451f05181ae4
      flags: 0
    RecentlyUsedScenePath-3:
      value: 22424703114646643d3c230835006b2f37242b0f181b197f1e2a183de7f37b0ce7f422e0e93d7f0f3a07e1391771353ae11e365ba7451f05181ae4
      flags: 0
    RecentlyUsedScenePath-4:
      value: 22424703114646643d3c230835006b2f37242b0f181b197f1e2a183de7f37b1fe3ea33dae43f31392a4dc339123b0d00a25b471ef8021e12
      flags: 0
    RecentlyUsedScenePath-5:
      value: 22424703114646643d3c230835006b2f37242b0f181b197f1e2a183de7f37b1fe3ea33dae43f31392a4dc339123b0d00a258471ef8021e12
      flags: 0
    RecentlyUsedScenePath-6:
      value: 22424703114646643d3c230835006b2f37242b0f181b197f1e2a183de7f37b1fe3ea33dae43f31392a4dc339123b0d00a259471ef8021e12
      flags: 0
    vcSharedLogLevel:
      value: 0d5e400f0650
      flags: 0
  m_VCAutomaticAdd: 1
  m_VCDebugCom: 0
  m_VCDebugCmd: 0
  m_VCDebugOut: 0
  m_SemanticMergeMode: 2
  m_VCShowFailedCheckout: 1
  m_VCOverwriteFailedCheckoutAssets: 1
  m_VCProjectOverlayIcons: 1
  m_VCHierarchyOverlayIcons: 1
  m_VCOtherOverlayIcons: 1
  m_VCAllowAsyncUpdate: 1
